{
    "name": "ML Feature Service",
    "dockerComposeFile": "./docker-compose.yml",
    "service": "app",
    "workspaceFolder": "/workspace",
    "remoteUser": "vscode",

    // Set *default* container specific settings.json values on container create.
    "settings": {
        "files.associations": {
            ".dockerignore": "ignore",
        },
        "[yaml]": {
            "editor.renderWhitespace": "all",
        },
    },

    // Add the IDs of extensions you want installed when the container is created.
    "extensions": [
        "golang.go",
    ],
}
